{
	"validity": 3650,
	"dn": {
		"c": "BR",
		"o": "Conectividade Social",
		"ou": "CNS ICP de Teste",
		"cn": {
			"root": "CNS AC Raiz de Teste",
			"inter": "CNS AC Intermediaria de Teste",
			"end": "CNS AC Final de Teste"
		}
	}
}